[
  {
    "title": "Home",
    "link": "/",
    "partiallyActive": false
  },
  {
    "title": "De standaard",
    "link": "/standard/",
    "partiallyActive": true
  },
  {
    "title": "Documentatie",
    "link": "/docs/",
    "partiallyActive": true
  },
  {
    "title": "Contact",
    "link": "/contact/",
    "partiallyActive": false
  }
]